#!/usr/bin/gnuplot

plot "./generaciones/.ang/cuboma1/avan_iter.hist.gnuplot"w l,"./generaciones/.ang/cuboma2/avan_iter.hist.gnuplot"w l,"./generaciones/.ang/cuboma2.06/avan_iter.hist.gnuplot"w l,"./generaciones/.ang/cuboma3/avan_iter.hist.gnuplot"w l,"./generaciones/.ang/cuboma4/avan_iter.hist.gnuplot"w l,"./generaciones/.ang/cubomaR/avan_iter.hist.gnuplot"w l,"./generaciones/.ang/cubomaG/avan_iter.hist.gnuplot"w l,"./generaciones/.ang/cubomaB/avan_iter.hist.gnuplot"w l,"./generaciones/.ang/cubomaRand/avan_iter.hist.gnuplot"w l,"./generaciones/.ang/cubomaL/avan_iter.hist.gnuplot"w l,"./generaciones/.ang/cubomaA/avan_iter.hist.gnuplot"w l,"./generaciones/.ang/cubomaD/avan_iter.hist.gnuplot"w l,"./generaciones/.ang/cubomaN/avan_iter.hist.gnuplot"w l,"./generaciones/.ang/frequomaF/avan_iter.hist.gnuplot"w l
pause -1 "Pulsa INTRO para continuar"
