#!/usr/bin/gnuplot

plot "./generaciones/.ang/cuboma1/avances.hist.gnuplot"w l,"./generaciones/.ang/cuboma2/avances.hist.gnuplot"w l,"./generaciones/.ang/cuboma2.06/avances.hist.gnuplot"w l,"./generaciones/.ang/cuboma3/avances.hist.gnuplot"w l,"./generaciones/.ang/cuboma4/avances.hist.gnuplot"w l,"./generaciones/.ang/cubomaR/avances.hist.gnuplot"w l,"./generaciones/.ang/cubomaG/avances.hist.gnuplot"w l,"./generaciones/.ang/cubomaB/avances.hist.gnuplot"w l,"./generaciones/.ang/cubomaRand/avances.hist.gnuplot"w l,"./generaciones/.ang/cubomaL/avances.hist.gnuplot"w l,"./generaciones/.ang/cubomaA/avances.hist.gnuplot"w l,"./generaciones/.ang/cubomaD/avances.hist.gnuplot"w l,"./generaciones/.ang/cubomaN/avances.hist.gnuplot"w l,"./generaciones/.ang/frequomaF/avances.hist.gnuplot"w l
pause -1 "Pulsa INTRO para continuar"
