#!/usr/bin/gnuplot

plot "./generaciones/.ang/cuboma1/historial.hist.gnuplot"w l,"./generaciones/.ang/cuboma2/historial.hist.gnuplot"w l,"./generaciones/.ang/cuboma2.06/historial.hist.gnuplot"w l,"./generaciones/.ang/cuboma3/historial.hist.gnuplot"w l,"./generaciones/.ang/cuboma4/historial.hist.gnuplot"w l,"./generaciones/.ang/cubomaR/historial.hist.gnuplot"w l,"./generaciones/.ang/cubomaG/historial.hist.gnuplot"w l,"./generaciones/.ang/cubomaB/historial.hist.gnuplot"w l,"./generaciones/.ang/cubomaRand/historial.hist.gnuplot"w l,"./generaciones/.ang/cubomaL/historial.hist.gnuplot"w l,"./generaciones/.ang/cubomaA/historial.hist.gnuplot"w l,"./generaciones/.ang/cubomaD/historial.hist.gnuplot"w l,"./generaciones/.ang/cubomaN/historial.hist.gnuplot"w l,"./generaciones/.ang/frequomaF/historial.hist.gnuplot"w l
pause -1 "Pulsa INTRO para continuar"
